Doing more with data: An introduction to Arrow for R users
…
<!----------------------------- SLIDE BREAK ----------------------------->
---

class: theme-green-minimal

## A secondary table

.pull-left-wide[

```r
nyc_taxi_zones
```

```
## # A tibble: 265 × 4
##    location_id borough       zone                    service_zone
##          <int> <chr>         <chr>                   <chr>       
##  1           1 EWR           Newark Airport          EWR         
##  2           2 Queens        Jamaica Bay             Boro Zone   
##  3           3 Bronx         Allerton/Pelham Gardens Boro Zone   
##  4           4 Manhattan     Alphabet City           Yellow Zone 
##  5           5 Staten Island Arden Heights           Boro Zone   
##  6           6 Staten Island Arrochar/Fort Wadsworth Boro Zone   
##  7           7 Queens        Astoria                 Boro Zone   
##  8           8 Queens        Astoria Park            Boro Zone   
##  9           9 Queens        Auburndale              Boro Zone   
## 10          10 Queens        Baisley Park            Boro Zone   
## # … with 255 more rows
```
…
```
## # A tibble: 22,228,736 × 6
##    pickup_datetime     dropoff_datetime    pickup_location_id dropoff_location_…
##    <dttm>              <dttm>                           <int>              <int>
##  1 2016-10-01 21:25:28 2016-10-01 22:12:36                132                142
##  2 2016-10-01 21:25:31 2016-10-01 21:54:12                132                  7
##  3 2016-10-01 21:25:38 2016-10-01 21:54:09                138                181
##  4 2016-10-01 21:25:44 2016-10-01 21:53:04                138                 17
##  5 2016-10-01 21:25:47 2016-10-01 22:46:14                132                162
##  6 2016-10-01 21:25:48 2016-10-01 22:22:16                132                230
##  7 2016-10-01 21:25:53 2016-10-01 22:11:04                132                  4
##  8 2016-10-01 21:26:04 2016-10-01 21:39:15                138                 56
##  9 2016-10-01 21:26:15 2016-10-01 22:10:25                132                 25
## 10 2016-10-01 21:26:18 2016-10-01 21:46:38                138                132
## # … with 22,228,726 more rows, and 2 more variables: dropoff_borough <chr>,
## #   dropoff_zone <chr>
```
…
nyc_taxi_zone_counts
```
]

.pull-right[
.scroll-output[

```
## # A tibble: 262 × 2
##    dropoff_zone                    n
##    <chr>                       <int>
##  1 Times Sq/Theatre District 1068981
##  2 Midtown Center             691807
##  3 Midtown East               691641
##  4 JFK Airport                645621
##  5 Midtown South              551206
##  6 Clinton East               544932
##  7 Murray Hill                534570
##  8 Midtown North              515244
##  9 <NA>                       419348
## 10 LaGuardia Airport          307649
## # … with 252 more rows
```
…
